{
  "id": "2dedaa0e-7b65-489c-8c15-26aca0cb8bb0",
  "values": [
    {
      "key": "url",
      "value": "https://localhost",
      "type": "text",
      "enabled": true
    },
    {
      "key": "apiuser.apikey",
      "value": "apiuser",
      "type": "text",
      "enabled": true
    },
    {
      "key": "adminuser.apikey",
      "value": "adminuser",
      "type": "text",
      "enabled": true
    },
    {
      "key": "apiuser.apikey.disabled",
      "value": "disableduser",
      "type": "text",
      "enabled": true
    },
    {
      "key": "adminuser.apikey.disabled",
      "value": "disabledadminuser",
      "type": "text",
      "enabled": true
    }
  ],
  "name": "CustomerCare Globals",
  "_postman_variable_scope": "globals",
  "_postman_exported_at": "2018-06-12T09:40:45.119Z",
  "_postman_exported_using": "Postman/6.1.3"
}